"";"biopsy";"resection"
"n";"   11";"   26"
"age.x (median [IQR])";"66.60 [59.15, 68.95]";"62.25 [51.57, 70.35]"
"GenderV2.x = Female (%)";"    2 (18.2) ";"   10 (38.5) "
"KPSpre.x (%)";"    ";"   "
"   >=70";"    7 (63.6) ";"   22 (84.6) "
"   <50";"    0 ( 0.0) ";"    1 ( 3.8) "
"   50-70";"    4 (36.4) ";"    3 (11.5) "
"vol (median [IQR])";"14.48 [8.53, 28.92]";"22.22 [7.57, 37.03]"
"multif = TRUE (%)";"    5 (45.5) ";"    2 ( 7.7) "
"lat = L (%)";"    2 (18.2) ";"   12 (46.2) "
"RI (median [IQR])";"80.00 [72.20, 85.05]";"89.00 [83.83, 92.33]"
"billat = TRUE (%)";"    4 (36.4) ";"    3 (11.5) "
"r_frontal = TRUE (%)";"    9 (81.8) ";"   12 (46.2) "
"r_parietal = TRUE (%)";"    7 (63.6) ";"    6 (23.1) "
"r_temporal = TRUE (%)";"    6 (54.5) ";"    8 (30.8) "
"r_occipital = TRUE (%)";"    3 (27.3) ";"    0 ( 0.0) "
"l_frontal = TRUE (%)";"    4 (36.4) ";"   12 (46.2) "
"l_parietal = TRUE (%)";"    0 ( 0.0) ";"    8 (30.8) "
"l_temporal = TRUE (%)";"    2 (18.2) ";"    8 (30.8) "
"l_occipital = TRUE (%)";"    1 ( 9.1) ";"    2 ( 7.7) "
"prg = TRUE (%)";"    3 (27.3) ";"   15 (57.7) "
"taal_cort = TRUE (%)";"    1 ( 9.1) ";"    8 (30.8) "
"cst = TRUE (%)";"    7 (63.6) ";"   14 (53.8) "
"taal_sub = TRUE (%)";"    2 (18.2) ";"    7 (26.9) "
"bk = TRUE (%)";"    9 (81.8) ";"   10 (38.5) "
"S7vis = TRUE (%)";"    8 (72.7) ";"   12 (46.2) "
"S7som = TRUE (%)";"    8 (72.7) ";"   16 (61.5) "
"S7da = TRUE (%)";"    5 (45.5) ";"   16 (61.5) "
"S7va = TRUE (%)";"    9 (81.8) ";"   24 (92.3) "
"S7lim = TRUE (%)";"    4 (36.4) ";"   11 (42.3) "
"S7fpcon = TRUE (%)";"    9 (81.8) ";"   21 (80.8) "
"S7def = TRUE (%)";"    9 (81.8) ";"   23 (88.5) "
