%!PS-Adobe-3.0
%%DocumentNeededResources: font Helvetica
%%+ font Helvetica-Bold
%%+ font Helvetica-Oblique
%%+ font Helvetica-BoldOblique
%%+ font Symbol
%%DocumentMedia: a4 595 841 0 () ()
%%Title: R Graphics Output
%%Creator: R Software
%%Pages: (atend)
%%Orientation: Landscape
%%BoundingBox: 118 97 478 745
%%EndComments
%%BeginProlog
/bp  { gs sRGB 595.00 0 translate 90 rotate gs } def
% begin .ps.prolog
/gs  { gsave } bind def
/gr  { grestore } bind def
/ep  { showpage gr gr } bind def
/m   { moveto } bind def
/l  { rlineto } bind def
/np  { newpath } bind def
/cp  { closepath } bind def
/f   { fill } bind def
/o   { stroke } bind def
/c   { newpath 0 360 arc } bind def
/r   { 4 2 roll moveto 1 copy 3 -1 roll exch 0 exch rlineto 0 rlineto -1 mul 0 exch rlineto closepath } bind def
/p1  { stroke } bind def
/p2  { gsave bg fill grestore newpath } bind def
/p3  { gsave bg fill grestore stroke } bind def
/p6  { gsave bg eofill grestore newpath } bind def
/p7  { gsave bg eofill grestore stroke } bind def
/t   { 5 -2 roll moveto gsave rotate
       1 index stringwidth pop
       mul neg 0 rmoveto show grestore } bind def
/ta  { 4 -2 roll moveto gsave rotate show } bind def
/tb  { 2 -1 roll 0 rmoveto show } bind def
/cl  { grestore gsave newpath 3 index 3 index moveto 1 index
       4 -1 roll lineto  exch 1 index lineto lineto
       closepath clip newpath } bind def
/rgb { setrgbcolor } bind def
/s   { scalefont setfont } bind def
% end   .ps.prolog
/sRGB { [ /CIEBasedABC
          << /DecodeLMN
               [ { dup 0.03928 le
                        {12.92321 div}
                        {0.055 add 1.055 div 2.4 exp }
                     ifelse
                 } bind dup dup
               ]
             /MatrixLMN [0.412457 0.212673 0.019334
                         0.357576 0.715152 0.119192
                         0.180437 0.072175 0.950301]
             /WhitePoint [0.9505 1.0 1.0890]
           >>
         ] setcolorspace } bind def
/srgb { setcolor } bind def
%%IncludeResource: font Helvetica
/Helvetica findfont
dup length dict begin
  {1 index /FID ne {def} {pop pop} ifelse} forall
  /Encoding ISOLatin1Encoding def
  currentdict
  end
/Font1 exch definefont pop
%%IncludeResource: font Helvetica-Bold
/Helvetica-Bold findfont
dup length dict begin
  {1 index /FID ne {def} {pop pop} ifelse} forall
  /Encoding ISOLatin1Encoding def
  currentdict
  end
/Font2 exch definefont pop
%%IncludeResource: font Helvetica-Oblique
/Helvetica-Oblique findfont
dup length dict begin
  {1 index /FID ne {def} {pop pop} ifelse} forall
  /Encoding ISOLatin1Encoding def
  currentdict
  end
/Font3 exch definefont pop
%%IncludeResource: font Helvetica-BoldOblique
/Helvetica-BoldOblique findfont
dup length dict begin
  {1 index /FID ne {def} {pop pop} ifelse} forall
  /Encoding ISOLatin1Encoding def
  currentdict
  end
/Font4 exch definefont pop
%%IncludeResource: font Symbol
/Symbol findfont
dup length dict begin
  {1 index /FID ne {def} {pop pop} ifelse} forall
  currentdict
  end
/Font5 exch definefont pop
%%EndProlog
%%Page: 1 1
bp
96.94 117.64 226.54 477.64 cl
/bg { 0.5451 0 0 srgb } def
144.46 174.97 0.00 9.81 r p2
144.46 186.75 0.00 9.81 r p2
144.46 198.52 0.00 9.81 r p2
144.46 210.30 0.00 9.81 r p2
144.46 222.08 0.00 9.81 r p2
144.46 233.85 0.00 9.81 r p2
144.46 245.63 0.73 9.81 r p2
144.46 257.40 0.00 9.81 r p2
144.46 269.18 5.08 9.81 r p2
/bg { 0.8275 0.8275 0.8275 srgb } def
144.46 280.96 1.45 9.81 r p2
144.46 292.73 15.97 9.81 r p2
144.46 304.51 6.53 9.81 r p2
/bg { 0 0.3922 0 srgb } def
144.46 316.28 1.45 9.81 r p2
144.46 328.06 0.00 9.81 r p2
144.46 339.84 0.00 9.81 r p2
144.46 351.61 0.00 9.81 r p2
144.46 363.39 0.00 9.81 r p2
144.46 375.16 0.00 9.81 r p2
144.46 386.94 0.00 9.81 r p2
144.46 398.72 0.00 9.81 r p2
144.46 410.49 0.00 9.81 r p2
96.94 117.64 744.94 477.64 cl
/Font1 findfont 8 s
0 0 0 srgb
134.96 177.01 (-100) 1 0 t
134.96 188.78 (-90) 1 0 t
134.96 200.56 (-80) 1 0 t
134.96 212.33 (-70) 1 0 t
134.96 224.11 (-60) 1 0 t
134.96 235.89 (-50) 1 0 t
134.96 247.66 (-40) 1 0 t
134.96 259.44 (-30) 1 0 t
134.96 271.21 (-20) 1 0 t
134.96 282.99 (-10) 1 0 t
134.96 294.77 (0) 1 0 t
134.96 306.54 (10) 1 0 t
134.96 318.32 (20) 1 0 t
134.96 330.09 (30) 1 0 t
134.96 341.87 (40) 1 0 t
134.96 353.65 (50) 1 0 t
134.96 365.42 (60) 1 0 t
134.96 377.20 (70) 1 0 t
134.96 388.97 (80) 1 0 t
134.96 400.75 (90) 1 0 t
134.96 412.53 (100) 1 0 t
96.94 117.64 226.54 477.64 cl
/Font1 findfont 12 s
0 0 0 srgb
143.06 129.04 (no) 0 ta
-0.480 (. of patients) tb gr
114.05 242.61 (perf) 90 ta
-0.360 (or) tb
0.300 (mance change) tb gr
96.94 117.64 744.94 477.64 cl
0 0 0 srgb
0.75 setlinewidth
[] 0 setdash
1 setlinecap
1 setlinejoin
10.00 setmiterlimit
np
144.46 165.16 m
72.58 0 l
o
np
144.46 165.16 m
0 -4.75 l
o
np
162.61 165.16 m
0 -4.75 l
o
np
180.75 165.16 m
0 -4.75 l
o
np
198.90 165.16 m
0 -4.75 l
o
np
217.04 165.16 m
0 -4.75 l
o
/Font1 findfont 8 s
144.46 148.05 (0) .5 0 t
162.61 148.05 (25) .5 0 t
180.75 148.05 (50) .5 0 t
198.90 148.05 (75) .5 0 t
217.04 148.05 (100) .5 0 t
96.94 117.64 226.54 477.64 cl
/Font2 findfont 10 s
0 0 0 srgb
180.75 455.99 (resections) .5 0 t
180.75 444.59 ( \(0,0.475]) .5 0 t
226.54 117.64 356.14 477.64 cl
/bg { 0.5451 0 0 srgb } def
255.06 174.97 0.00 9.81 r p2
255.06 186.75 0.00 9.81 r p2
255.06 198.52 0.00 9.81 r p2
255.06 210.30 0.00 9.81 r p2
255.06 222.08 0.00 9.81 r p2
255.06 233.85 0.00 9.81 r p2
255.06 245.63 0.00 9.81 r p2
255.06 257.40 4.58 9.81 r p2
255.06 269.18 4.58 9.81 r p2
/bg { 0.8275 0.8275 0.8275 srgb } def
255.06 280.96 14.65 9.81 r p2
255.06 292.73 61.36 9.81 r p2
255.06 304.51 12.82 9.81 r p2
/bg { 0 0.3922 0 srgb } def
255.06 316.28 4.58 9.81 r p2
255.06 328.06 2.75 9.81 r p2
255.06 339.84 0.92 9.81 r p2
255.06 351.61 0.92 9.81 r p2
255.06 363.39 0.00 9.81 r p2
255.06 375.16 0.00 9.81 r p2
255.06 386.94 0.00 9.81 r p2
255.06 398.72 0.00 9.81 r p2
255.06 410.49 0.00 9.81 r p2
/Font1 findfont 12 s
0 0 0 srgb
263.16 129.04 (no) 0 ta
-0.480 (. of patients) tb gr
96.94 117.64 744.94 477.64 cl
0 0 0 srgb
0.75 setlinewidth
[] 0 setdash
1 setlinecap
1 setlinejoin
10.00 setmiterlimit
np
255.06 165.16 m
91.58 0 l
o
np
255.06 165.16 m
0 -4.75 l
o
np
277.95 165.16 m
0 -4.75 l
o
np
300.85 165.16 m
0 -4.75 l
o
np
323.74 165.16 m
0 -4.75 l
o
np
346.64 165.16 m
0 -4.75 l
o
/Font1 findfont 8 s
255.06 148.05 (0) .5 0 t
277.95 148.05 (25) .5 0 t
300.85 148.05 (50) .5 0 t
323.74 148.05 (75) .5 0 t
346.64 148.05 (100) .5 0 t
226.54 117.64 356.14 477.64 cl
/Font2 findfont 10 s
0 0 0 srgb
300.85 455.99 (resections) .5 0 t
300.85 444.59 ( \(0.475,0.755]) .5 0 t
356.14 117.64 485.74 477.64 cl
/bg { 0.5451 0 0 srgb } def
384.66 174.97 0.00 9.81 r p2
384.66 186.75 0.00 9.81 r p2
384.66 198.52 0.00 9.81 r p2
384.66 210.30 0.00 9.81 r p2
384.66 222.08 1.83 9.81 r p2
384.66 233.85 0.00 9.81 r p2
384.66 245.63 0.92 9.81 r p2
384.66 257.40 7.33 9.81 r p2
384.66 269.18 9.16 9.81 r p2
/bg { 0.8275 0.8275 0.8275 srgb } def
384.66 280.96 23.81 9.81 r p2
384.66 292.73 85.17 9.81 r p2
384.66 304.51 14.65 9.81 r p2
/bg { 0 0.3922 0 srgb } def
384.66 316.28 4.58 9.81 r p2
384.66 328.06 0.00 9.81 r p2
384.66 339.84 0.00 9.81 r p2
384.66 351.61 0.00 9.81 r p2
384.66 363.39 0.00 9.81 r p2
384.66 375.16 0.00 9.81 r p2
384.66 386.94 0.00 9.81 r p2
384.66 398.72 0.00 9.81 r p2
384.66 410.49 0.00 9.81 r p2
/Font1 findfont 12 s
0 0 0 srgb
392.76 129.04 (no) 0 ta
-0.480 (. of patients) tb gr
96.94 117.64 744.94 477.64 cl
0 0 0 srgb
0.75 setlinewidth
[] 0 setdash
1 setlinecap
1 setlinejoin
10.00 setmiterlimit
np
384.66 165.16 m
91.58 0 l
o
np
384.66 165.16 m
0 -4.75 l
o
np
407.55 165.16 m
0 -4.75 l
o
np
430.45 165.16 m
0 -4.75 l
o
np
453.34 165.16 m
0 -4.75 l
o
np
476.24 165.16 m
0 -4.75 l
o
/Font1 findfont 8 s
384.66 148.05 (0) .5 0 t
407.55 148.05 (25) .5 0 t
430.45 148.05 (50) .5 0 t
453.34 148.05 (75) .5 0 t
476.24 148.05 (100) .5 0 t
356.14 117.64 485.74 477.64 cl
/Font2 findfont 10 s
0 0 0 srgb
430.45 455.99 (resections) .5 0 t
430.45 444.59 ( \(0.755,0.883]) .5 0 t
485.74 117.64 615.34 477.64 cl
/bg { 0.5451 0 0 srgb } def
514.26 174.97 0.00 9.81 r p2
514.26 186.75 0.92 9.81 r p2
514.26 198.52 0.00 9.81 r p2
514.26 210.30 0.00 9.81 r p2
514.26 222.08 0.00 9.81 r p2
514.26 233.85 0.92 9.81 r p2
514.26 245.63 0.92 9.81 r p2
514.26 257.40 4.58 9.81 r p2
514.26 269.18 10.99 9.81 r p2
/bg { 0.8275 0.8275 0.8275 srgb } def
514.26 280.96 19.23 9.81 r p2
514.26 292.73 85.17 9.81 r p2
514.26 304.51 31.14 9.81 r p2
/bg { 0 0.3922 0 srgb } def
514.26 316.28 8.24 9.81 r p2
514.26 328.06 0.92 9.81 r p2
514.26 339.84 1.83 9.81 r p2
514.26 351.61 0.00 9.81 r p2
514.26 363.39 0.00 9.81 r p2
514.26 375.16 0.00 9.81 r p2
514.26 386.94 0.00 9.81 r p2
514.26 398.72 0.00 9.81 r p2
514.26 410.49 0.00 9.81 r p2
/Font1 findfont 12 s
0 0 0 srgb
522.36 129.04 (no) 0 ta
-0.480 (. of patients) tb gr
96.94 117.64 744.94 477.64 cl
0 0 0 srgb
0.75 setlinewidth
[] 0 setdash
1 setlinecap
1 setlinejoin
10.00 setmiterlimit
np
514.26 165.16 m
91.58 0 l
o
np
514.26 165.16 m
0 -4.75 l
o
np
537.15 165.16 m
0 -4.75 l
o
np
560.05 165.16 m
0 -4.75 l
o
np
582.94 165.16 m
0 -4.75 l
o
np
605.84 165.16 m
0 -4.75 l
o
/Font1 findfont 8 s
514.26 148.05 (0) .5 0 t
537.15 148.05 (25) .5 0 t
560.05 148.05 (50) .5 0 t
582.94 148.05 (75) .5 0 t
605.84 148.05 (100) .5 0 t
485.74 117.64 615.34 477.64 cl
/Font2 findfont 10 s
0 0 0 srgb
560.05 455.99 (resections) .5 0 t
560.05 444.59 ( \(0.883,0.954]) .5 0 t
615.34 117.64 744.94 477.64 cl
/bg { 0.5451 0 0 srgb } def
643.86 174.97 0.00 9.81 r p2
643.86 186.75 0.00 9.81 r p2
643.86 198.52 0.00 9.81 r p2
643.86 210.30 0.92 9.81 r p2
643.86 222.08 0.00 9.81 r p2
643.86 233.85 0.92 9.81 r p2
643.86 245.63 0.92 9.81 r p2
643.86 257.40 3.66 9.81 r p2
643.86 269.18 13.74 9.81 r p2
/bg { 0.8275 0.8275 0.8275 srgb } def
643.86 280.96 30.22 9.81 r p2
643.86 292.73 88.84 9.81 r p2
643.86 304.51 26.56 9.81 r p2
/bg { 0 0.3922 0 srgb } def
643.86 316.28 8.24 9.81 r p2
643.86 328.06 1.83 9.81 r p2
643.86 339.84 0.92 9.81 r p2
643.86 351.61 0.92 9.81 r p2
643.86 363.39 0.00 9.81 r p2
643.86 375.16 0.00 9.81 r p2
643.86 386.94 0.00 9.81 r p2
643.86 398.72 0.00 9.81 r p2
643.86 410.49 0.00 9.81 r p2
/Font1 findfont 12 s
0 0 0 srgb
651.96 129.04 (no) 0 ta
-0.480 (. of patients) tb gr
96.94 117.64 744.94 477.64 cl
0 0 0 srgb
0.75 setlinewidth
[] 0 setdash
1 setlinecap
1 setlinejoin
10.00 setmiterlimit
np
643.86 165.16 m
91.58 0 l
o
np
643.86 165.16 m
0 -4.75 l
o
np
666.75 165.16 m
0 -4.75 l
o
np
689.65 165.16 m
0 -4.75 l
o
np
712.54 165.16 m
0 -4.75 l
o
np
735.44 165.16 m
0 -4.75 l
o
/Font1 findfont 8 s
643.86 148.05 (0) .5 0 t
666.75 148.05 (25) .5 0 t
689.65 148.05 (50) .5 0 t
712.54 148.05 (75) .5 0 t
735.44 148.05 (100) .5 0 t
615.34 117.64 744.94 477.64 cl
/Font2 findfont 10 s
0 0 0 srgb
689.65 455.99 (resections) .5 0 t
689.65 444.59 ( \(0.954,1]) .5 0 t
ep
%%Trailer
%%Pages: 1
%%EOF
