%!PS-Adobe-3.0
%%DocumentNeededResources: font Helvetica
%%+ font Helvetica-Bold
%%+ font Helvetica-Oblique
%%+ font Helvetica-BoldOblique
%%+ font Symbol
%%DocumentMedia: a4 595 841 0 () ()
%%Title: R Graphics Output
%%Creator: R Software
%%Pages: (atend)
%%Orientation: Landscape
%%BoundingBox: 118 241 478 601
%%EndComments
%%BeginProlog
/bp  { gs sRGB 595.00 0 translate 90 rotate gs } def
% begin .ps.prolog
/gs  { gsave } bind def
/gr  { grestore } bind def
/ep  { showpage gr gr } bind def
/m   { moveto } bind def
/l  { rlineto } bind def
/np  { newpath } bind def
/cp  { closepath } bind def
/f   { fill } bind def
/o   { stroke } bind def
/c   { newpath 0 360 arc } bind def
/r   { 4 2 roll moveto 1 copy 3 -1 roll exch 0 exch rlineto 0 rlineto -1 mul 0 exch rlineto closepath } bind def
/p1  { stroke } bind def
/p2  { gsave bg fill grestore newpath } bind def
/p3  { gsave bg fill grestore stroke } bind def
/p6  { gsave bg eofill grestore newpath } bind def
/p7  { gsave bg eofill grestore stroke } bind def
/t   { 5 -2 roll moveto gsave rotate
       1 index stringwidth pop
       mul neg 0 rmoveto show grestore } bind def
/ta  { 4 -2 roll moveto gsave rotate show } bind def
/tb  { 2 -1 roll 0 rmoveto show } bind def
/cl  { grestore gsave newpath 3 index 3 index moveto 1 index
       4 -1 roll lineto  exch 1 index lineto lineto
       closepath clip newpath } bind def
/rgb { setrgbcolor } bind def
/s   { scalefont setfont } bind def
% end   .ps.prolog
/sRGB { [ /CIEBasedABC
          << /DecodeLMN
               [ { dup 0.03928 le
                        {12.92321 div}
                        {0.055 add 1.055 div 2.4 exp }
                     ifelse
                 } bind dup dup
               ]
             /MatrixLMN [0.412457 0.212673 0.019334
                         0.357576 0.715152 0.119192
                         0.180437 0.072175 0.950301]
             /WhitePoint [0.9505 1.0 1.0890]
           >>
         ] setcolorspace } bind def
/srgb { setcolor } bind def
%%IncludeResource: font Helvetica
/Helvetica findfont
dup length dict begin
  {1 index /FID ne {def} {pop pop} ifelse} forall
  /Encoding ISOLatin1Encoding def
  currentdict
  end
/Font1 exch definefont pop
%%IncludeResource: font Helvetica-Bold
/Helvetica-Bold findfont
dup length dict begin
  {1 index /FID ne {def} {pop pop} ifelse} forall
  /Encoding ISOLatin1Encoding def
  currentdict
  end
/Font2 exch definefont pop
%%IncludeResource: font Helvetica-Oblique
/Helvetica-Oblique findfont
dup length dict begin
  {1 index /FID ne {def} {pop pop} ifelse} forall
  /Encoding ISOLatin1Encoding def
  currentdict
  end
/Font3 exch definefont pop
%%IncludeResource: font Helvetica-BoldOblique
/Helvetica-BoldOblique findfont
dup length dict begin
  {1 index /FID ne {def} {pop pop} ifelse} forall
  /Encoding ISOLatin1Encoding def
  currentdict
  end
/Font4 exch definefont pop
%%IncludeResource: font Symbol
/Symbol findfont
dup length dict begin
  {1 index /FID ne {def} {pop pop} ifelse} forall
  currentdict
  end
/Font5 exch definefont pop
%%EndProlog
%%Page: 1 1
bp
240.94 117.64 600.94 477.64 cl
/Font1 findfont 12 s
0 0 0 srgb
449.74 134.92 (time in months) .5 0 t
266.86 248.29 (sur) 90 ta
0.360 (viv) tb
-0.300 (al probability) tb gr
312.94 189.64 586.54 405.64 cl
1 1 1 srgb
0.75 setlinewidth
[ 0.00 3.00] 0 setdash
1 setlinecap
1 setlinejoin
10.00 setmiterlimit
np
240.74 397.64 m
83.28 0 l
0 -1.31 l
0.47 0 l
0 -1.31 l
0.23 0 l
0 -1.30 l
0.23 0 l
0 -1.31 l
0.47 0 l
0 -1.31 l
2.12 0 l
0 -1.31 l
0.93 0 l
0 -1.30 l
0.71 0 l
0 -1.31 l
0.47 0 l
0 -1.31 l
0.47 0 l
0 -1.30 l
0.23 0 l
0 -2.62 l
0.23 0 l
0 -2.61 l
1.18 0 l
0 -5.23 l
0.70 0 l
0 -1.31 l
0.94 0 l
0 -2.61 l
0.70 0 l
0 -1.32 l
0.24 0 l
0 -1.32 l
0.23 0 l
0 -1.31 l
0.47 0 l
0 -1.32 l
0.24 0 l
0 -3.95 l
0.23 0 l
0 -1.33 l
0.47 0 l
0 -1.33 l
0.23 0 l
0 -1.33 l
0.24 0 l
0 -1.32 l
0.70 0 l
0 -1.33 l
0.24 0 l
0 -1.33 l
0.23 0 l
0 -1.33 l
0.47 0 l
0 -1.33 l
0.24 0 l
0 -1.32 l
0.23 0 l
0 -2.68 l
0.47 0 l
0 -1.34 l
0.47 0 l
0 -1.34 l
0.23 0 l
0 -2.68 l
0.24 0 l
0 -1.35 l
0.94 0 l
0 -1.36 l
0.23 0 l
0 -2.70 l
0.23 0 l
0 -1.35 l
0.47 0 l
0 -4.06 l
0.47 0 l
0 -1.35 l
0.24 0 l
0 -1.35 l
0.23 0 l
0 -1.36 l
0.47 0 l
0 -2.70 l
1.41 0 l
0 -1.35 l
1.41 0 l
0 -1.36 l
0.47 0 l
0 -1.35 l
0.23 0 l
0 -1.35 l
0.23 0 l
0 -2.71 l
3.52 0 l
0 -1.35 l
0.24 0 l
0 -4.05 l
0.23 0 l
350.99 307.17 lineto
0.71 0 l
0 -1.39 l
0.93 0 l
0 -1.38 l
1.18 0 l
0 -1.39 l
1.40 0 l
0 -1.38 l
0.94 0 l
0 -2.78 l
0.24 0 l
0 -1.38 l
1.40 0 l
0 -1.39 l
0.24 0 l
0 -1.39 l
0.23 0 l
0 -1.38 l
0.47 0 l
0 -1.39 l
0.71 0 l
0 -1.39 l
0.70 0 l
0 -1.38 l
2.35 0 l
0 -2.82 l
0.23 0 l
0 -1.41 l
0.23 0 l
0 -1.40 l
0.94 0 l
0 -1.41 l
0.47 0 l
0 -1.41 l
0.24 0 l
0 -2.82 l
0.70 0 l
0 -2.81 l
2.82 0 l
0 -1.41 l
0.23 0 l
0 -1.41 l
0.94 0 l
0 -1.40 l
0.94 0 l
0 -1.41 l
0.47 0 l
0 -1.41 l
0.93 0 l
0 -1.41 l
0.24 0 l
0 -1.41 l
0.94 0 l
0 -1.40 l
0.70 0 l
0 -1.41 l
0.23 0 l
0 -1.41 l
0.47 0 l
0 -1.41 l
0.71 0 l
0 -1.41 l
0.94 0 l
0 -2.81 l
2.58 0 l
0 -1.41 l
0.23 0 l
0 -1.41 l
0.24 0 l
0 -1.40 l
0.23 0 l
0 -1.41 l
0.94 0 l
0 -1.41 l
0.94 0 l
0 -1.41 l
0.70 0 l
0 -1.41 l
0.23 0 l
0 -1.40 l
1.18 0 l
0 -1.41 l
1.87 0 l
0 -1.41 l
2.58 0 l
0 -1.45 l
4.46 0 l
0 -1.46 l
4.69 0 l
0 -1.45 l
0.94 0 l
0 -1.46 l
0.94 0 l
0 -3.02 l
0.23 0 l
0 -1.52 l
4.23 0 l
0 -1.51 l
3.98 0 l
407.05 227.90 lineto
1.18 0 l
0 -1.52 l
4.45 0 l
0 -1.51 l
5.87 0 l
0 -1.60 l
5.16 0 l
0 -1.60 l
1.41 0 l
0 -3.21 l
5.62 0 l
0 -1.60 l
0.24 0 l
0 -1.60 l
4.69 0 l
0 -1.76 l
17.12 0 l
0 -1.77 l
23.46 0 l
0 -1.76 l
16.66 0 l
0 -1.76 l
7.97 0 l
0 -1.76 l
61.22 0 l
0 -2.20 l
14.31 0 l
o
240.94 117.64 600.94 477.64 cl
0 0 0 srgb
0.75 setlinewidth
[] 0 setdash
1 setlinecap
1 setlinejoin
10.00 setmiterlimit
np
323.08 189.64 m
253.33 0 l
o
np
323.08 189.64 m
0 -7.20 l
o
np
344.19 189.64 m
0 -7.20 l
o
np
365.30 189.64 m
0 -7.20 l
o
np
386.41 189.64 m
0 -7.20 l
o
np
407.52 189.64 m
0 -7.20 l
o
np
428.63 189.64 m
0 -7.20 l
o
np
449.74 189.64 m
0 -7.20 l
o
np
470.86 189.64 m
0 -7.20 l
o
np
491.97 189.64 m
0 -7.20 l
o
np
513.08 189.64 m
0 -7.20 l
o
np
534.19 189.64 m
0 -7.20 l
o
np
555.30 189.64 m
0 -7.20 l
o
np
576.41 189.64 m
0 -7.20 l
o
/Font1 findfont 12 s
323.08 163.72 (0) .5 0 t
344.19 163.72 (3) .5 0 t
365.30 163.72 (6) .5 0 t
386.41 163.72 (9) .5 0 t
407.52 163.72 (12) .5 0 t
449.74 163.72 (18) .5 0 t
491.97 163.72 (24) .5 0 t
534.19 163.72 (30) .5 0 t
576.41 163.72 (36) .5 0 t
np
312.94 197.64 m
0 200.00 l
o
np
312.94 197.64 m
-7.20 0 l
o
np
312.94 237.64 m
-7.20 0 l
o
np
312.94 277.64 m
-7.20 0 l
o
np
312.94 317.64 m
-7.20 0 l
o
np
312.94 357.64 m
-7.20 0 l
o
np
312.94 397.64 m
-7.20 0 l
o
298.54 193.33 (0%) 1 0 t
298.54 233.33 (20%) 1 0 t
298.54 273.33 (40%) 1 0 t
298.54 313.33 (60%) 1 0 t
298.54 353.33 (80%) 1 0 t
298.54 393.33 (100%) 1 0 t
312.94 189.64 586.54 405.64 cl
0.9961 0.7686 0.3098 srgb
0.75 setlinewidth
[] 0 setdash
1 setlinecap
1 setlinejoin
10.00 setmiterlimit
np
240.74 397.64 m
83.28 0 l
0 -1.31 l
0.47 0 l
0 -1.31 l
0.23 0 l
0 -1.30 l
0.23 0 l
0 -1.31 l
0.47 0 l
0 -1.31 l
2.12 0 l
0 -1.31 l
0.93 0 l
0 -1.30 l
0.71 0 l
0 -1.31 l
0.47 0 l
0 -1.31 l
0.47 0 l
0 -1.30 l
0.23 0 l
0 -2.62 l
0.23 0 l
0 -2.61 l
1.18 0 l
0 -5.23 l
0.70 0 l
0 -1.31 l
0.94 0 l
0 -2.61 l
0.70 0 l
0 -1.32 l
0.24 0 l
0 -1.32 l
0.23 0 l
0 -1.31 l
0.47 0 l
0 -1.32 l
0.24 0 l
0 -3.95 l
0.23 0 l
0 -1.33 l
0.47 0 l
0 -1.33 l
0.23 0 l
0 -1.33 l
0.24 0 l
0 -1.32 l
0.70 0 l
0 -1.33 l
0.24 0 l
0 -1.33 l
0.23 0 l
0 -1.33 l
0.47 0 l
0 -1.33 l
0.24 0 l
0 -1.32 l
0.23 0 l
0 -2.68 l
0.47 0 l
0 -1.34 l
0.47 0 l
0 -1.34 l
0.23 0 l
0 -2.68 l
0.24 0 l
0 -1.35 l
0.94 0 l
0 -1.36 l
0.23 0 l
0 -2.70 l
0.23 0 l
0 -1.35 l
0.47 0 l
0 -4.06 l
0.47 0 l
0 -1.35 l
0.24 0 l
0 -1.35 l
0.23 0 l
0 -1.36 l
0.47 0 l
0 -2.70 l
1.41 0 l
0 -1.35 l
1.41 0 l
0 -1.36 l
0.47 0 l
0 -1.35 l
0.23 0 l
0 -1.35 l
0.23 0 l
0 -2.71 l
3.52 0 l
0 -1.35 l
0.24 0 l
0 -4.05 l
0.23 0 l
350.99 307.17 lineto
0.71 0 l
0 -1.39 l
0.93 0 l
0 -1.38 l
1.18 0 l
0 -1.39 l
1.40 0 l
0 -1.38 l
0.94 0 l
0 -2.78 l
0.24 0 l
0 -1.38 l
1.40 0 l
0 -1.39 l
0.24 0 l
0 -1.39 l
0.23 0 l
0 -1.38 l
0.47 0 l
0 -1.39 l
0.71 0 l
0 -1.39 l
0.70 0 l
0 -1.38 l
2.35 0 l
0 -2.82 l
0.23 0 l
0 -1.41 l
0.23 0 l
0 -1.40 l
0.94 0 l
0 -1.41 l
0.47 0 l
0 -1.41 l
0.24 0 l
0 -2.82 l
0.70 0 l
0 -2.81 l
2.82 0 l
0 -1.41 l
0.23 0 l
0 -1.41 l
0.94 0 l
0 -1.40 l
0.94 0 l
0 -1.41 l
0.47 0 l
0 -1.41 l
0.93 0 l
0 -1.41 l
0.24 0 l
0 -1.41 l
0.94 0 l
0 -1.40 l
0.70 0 l
0 -1.41 l
0.23 0 l
0 -1.41 l
0.47 0 l
0 -1.41 l
0.71 0 l
0 -1.41 l
0.94 0 l
0 -2.81 l
2.58 0 l
0 -1.41 l
0.23 0 l
0 -1.41 l
0.24 0 l
0 -1.40 l
0.23 0 l
0 -1.41 l
0.94 0 l
0 -1.41 l
0.94 0 l
0 -1.41 l
0.70 0 l
0 -1.41 l
0.23 0 l
0 -1.40 l
1.18 0 l
0 -1.41 l
1.87 0 l
0 -1.41 l
2.58 0 l
0 -1.45 l
4.46 0 l
0 -1.46 l
4.69 0 l
0 -1.45 l
0.94 0 l
0 -1.46 l
0.94 0 l
0 -3.02 l
0.23 0 l
0 -1.52 l
4.23 0 l
0 -1.51 l
3.98 0 l
407.05 227.90 lineto
1.18 0 l
0 -1.52 l
4.45 0 l
0 -1.51 l
5.87 0 l
0 -1.60 l
5.16 0 l
0 -1.60 l
1.41 0 l
0 -3.21 l
5.62 0 l
0 -1.60 l
0.24 0 l
0 -1.60 l
4.69 0 l
0 -1.76 l
17.12 0 l
0 -1.77 l
23.46 0 l
0 -1.76 l
16.66 0 l
0 -1.76 l
7.97 0 l
0 -1.76 l
61.22 0 l
0 -2.20 l
14.31 0 l
o
0.9961 0.6000 0.1608 srgb
np
323.08 397.64 m
2.34 0 l
0 -2.74 l
3.99 0 l
0 -2.74 l
0.71 0 l
0 -2.74 l
1.64 0 l
0 -2.74 l
0.47 0 l
0 -8.22 l
0.47 0 l
0 -2.74 l
0.46 0 l
0 -2.74 l
1.41 0 l
0 -2.74 l
1.41 0 l
0 -2.74 l
1.41 0 l
0 -2.74 l
0.47 0 l
0 -5.48 l
1.40 0 l
0 -5.48 l
0.71 0 l
0 -2.74 l
0.70 0 l
0 -2.74 l
1.64 0 l
0 -2.74 l
0.94 0 l
0 -2.74 l
0.94 0 l
0 -2.74 l
0.23 0 l
0 -2.74 l
1.88 0 l
0 -2.74 l
3.52 0 l
0 -2.79 l
0.70 0 l
0 -2.80 l
0.24 0 l
0 -2.79 l
1.64 0 l
0 -2.80 l
3.05 0 l
0 -2.86 l
0.70 0 l
0 -2.86 l
3.76 0 l
0 -2.93 l
0.46 0 l
0 -2.92 l
4.46 0 l
0 -2.93 l
2.35 0 l
0 -2.93 l
1.17 0 l
0 -2.93 l
0.70 0 l
0 -2.93 l
4.69 0 l
0 -2.93 l
2.59 0 l
0 -3.02 l
0.46 0 l
0 -3.01 l
1.65 0 l
0 -3.02 l
0.70 0 l
0 -3.02 l
2.11 0 l
0 -3.02 l
6.57 0 l
0 -3.13 l
3.99 0 l
0 -3.13 l
2.81 0 l
0 -3.13 l
2.35 0 l
0 -3.13 l
1.40 0 l
0 -3.12 l
0.94 0 l
0 -3.13 l
9.15 0 l
0 -3.29 l
2.11 0 l
0 -3.29 l
9.15 0 l
0 -3.28 l
4.93 0 l
0 -3.29 l
3.98 0 l
0 -3.28 l
4.46 0 l
0 -3.29 l
5.40 0 l
438.49 240.35 lineto
13.84 0 l
0 -3.28 l
8.21 0 l
0 -3.29 l
7.50 0 l
0 -3.28 l
5.40 0 l
0 -3.29 l
4.69 0 l
0 -3.28 l
13.84 0 l
0 -3.29 l
23.22 0 l
0 -3.29 l
16.42 0 l
0 -3.28 l
15.95 0 l
0 -3.29 l
17.59 0 l
0 -3.28 l
11.26 0 l
o
0.9255 0.4392 0.0784 srgb
np
323.08 397.64 m
1.87 0 l
0 -6.06 l
0.71 0 l
0 -6.06 l
0.70 0 l
0 -6.06 l
1.41 0 l
0 -6.06 l
3.99 0 l
0 -6.28 l
3.75 0 l
0 -6.52 l
0.94 0 l
0 -13.04 l
3.52 0 l
0 -6.81 l
0.47 0 l
0 -6.82 l
11.02 0 l
0 -6.81 l
0.47 0 l
0 -6.82 l
2.35 0 l
0 -6.81 l
9.14 0 l
0 -6.82 l
4.93 0 l
0 -6.81 l
2.11 0 l
0 -7.30 l
6.57 0 l
0 -7.91 l
3.05 0 l
0 -15.82 l
3.75 0 l
0 -7.91 l
5.16 0 l
0 -7.91 l
6.10 0 l
0 -7.91 l
2.58 0 l
0 -7.91 l
8.21 0 l
0 -7.91 l
5.16 0 l
0 -7.91 l
31.67 0 l
0 -7.91 l
6.10 0 l
0 -7.91 l
10.55 0 l
0 -7.91 l
o
0.8000 0.2980 0.0078 srgb
np
323.08 397.64 m
14.31 0 l
0 -15.39 l
5.39 0 l
0 -15.38 l
8.92 0 l
0 -15.39 l
13.37 0 l
0 -15.38 l
17.12 0 l
0 -15.39 l
3.99 0 l
0 -15.38 l
6.33 0 l
0 -15.38 l
4.22 0 l
0 -15.39 l
1.41 0 l
0 -30.77 l
26.27 0 l
0 -15.38 l
23.22 0 l
0 -15.39 l
54.42 0 l
0 -15.38 l
o
0.5490 0.1765 0.0157 srgb
np
251.07 397.64 m
72.48 0 l
0 -40.00 l
21.11 0 l
0 -53.34 l
29.08 0 l
0 -53.33 l
89.38 0 l
0 -53.33 l
o
0.6510 0.7412 0.8588 srgb
np
323.08 397.64 m
4.92 0 l
0 -5.27 l
4.46 0 l
0 -5.26 l
4.93 0 l
0 -5.26 l
0.47 0 l
0 -10.53 l
1.87 0 l
0 -5.26 l
0.94 0 l
0 -5.26 l
0.70 0 l
0 -5.27 l
2.12 0 l
0 -5.26 l
4.45 0 l
0 -5.26 l
0.47 0 l
0 -5.27 l
2.35 0 l
0 -5.26 l
0.47 0 l
0 -5.26 l
4.45 0 l
0 -5.27 l
0.71 0 l
0 -5.26 l
5.86 0 l
0 -5.26 l
5.16 0 l
0 -5.27 l
1.41 0 l
0 -5.26 l
0.23 0 l
0 -5.26 l
8.21 0 l
0 -5.27 l
4.46 0 l
0 -5.26 l
4.93 0 l
0 -5.26 l
1.17 0 l
0 -5.26 l
10.32 0 l
0 -5.27 l
2.81 0 l
0 -5.26 l
2.59 0 l
0 -5.26 l
23.69 0 l
0 -5.27 l
18.76 0 l
0 -5.26 l
10.32 0 l
0 -5.26 l
11.50 0 l
0 -5.27 l
34.48 0 l
0 -5.26 l
0.47 0 l
0 -5.26 l
16.18 0 l
0 -6.32 l
25.57 0 l
0 -8.42 l
19.00 0 l
o
0.4549 0.6627 0.8118 srgb
np
323.08 397.64 m
2.81 0 l
0 -1.64 l
2.58 0 l
0 -1.64 l
0.71 0 l
0 -1.64 l
3.05 0 l
0 -1.65 l
1.64 0 l
0 -1.67 l
8.44 0 l
0 -1.70 l
0.47 0 l
0 -1.69 l
0.47 0 l
0 -1.70 l
0.70 0 l
0 -1.70 l
1.18 0 l
0 -1.70 l
0.70 0 l
0 -1.71 l
1.17 0 l
0 -1.71 l
3.52 0 l
0 -1.73 l
0.71 0 l
0 -1.73 l
1.64 0 l
0 -1.73 l
0.47 0 l
0 -1.73 l
1.87 0 l
0 -1.73 l
1.65 0 l
0 -1.73 l
1.40 0 l
0 -1.73 l
6.34 0 l
0 -1.74 l
0.23 0 l
0 -1.77 l
0.47 0 l
0 -3.53 l
0.24 0 l
0 -1.77 l
1.64 0 l
0 -1.76 l
0.70 0 l
0 -1.77 l
0.70 0 l
0 -1.77 l
0.47 0 l
0 -1.76 l
0.47 0 l
0 -1.77 l
0.47 0 l
0 -1.76 l
0.47 0 l
0 -1.77 l
0.24 0 l
0 -1.77 l
2.11 0 l
0 -1.76 l
2.81 0 l
0 -1.77 l
0.24 0 l
0 -1.76 l
3.51 0 l
0 -1.79 l
0.71 0 l
0 -1.79 l
0.70 0 l
0 -1.79 l
2.58 0 l
0 -1.79 l
0.47 0 l
0 -1.79 l
0.47 0 l
0 -1.78 l
1.17 0 l
0 -1.79 l
1.41 0 l
0 -1.79 l
4.69 0 l
0 -1.82 l
0.24 0 l
0 -1.81 l
2.34 0 l
0 -1.82 l
2.35 0 l
0 -1.81 l
2.34 0 l
0 -1.81 l
1.41 0 l
0 -1.82 l
0.70 0 l
0 -1.81 l
0.24 0 l
401.19 308.32 lineto
1.41 0 l
0 -3.63 l
0.23 0 l
0 -1.81 l
11.03 0 l
0 -1.82 l
2.58 0 l
0 -1.81 l
0.23 0 l
0 -1.81 l
0.47 0 l
0 -1.82 l
0.94 0 l
0 -1.81 l
0.23 0 l
0 -1.82 l
0.47 0 l
0 -3.63 l
0.24 0 l
0 -1.81 l
2.58 0 l
0 -1.82 l
0.23 0 l
0 -1.81 l
1.88 0 l
0 -1.82 l
0.47 0 l
0 -1.81 l
0.70 0 l
0 -3.63 l
0.47 0 l
0 -1.81 l
1.64 0 l
0 -1.82 l
0.24 0 l
0 -1.81 l
7.50 0 l
0 -1.82 l
0.94 0 l
0 -1.81 l
0.47 0 l
0 -1.82 l
1.88 0 l
0 -1.81 l
1.17 0 l
0 -1.81 l
0.47 0 l
0 -1.82 l
3.28 0 l
0 -1.81 l
13.84 0 l
0 -1.82 l
6.10 0 l
0 -1.81 l
4.22 0 l
0 -1.82 l
2.35 0 l
0 -1.81 l
2.11 0 l
0 -1.82 l
6.80 0 l
0 -1.81 l
1.64 0 l
0 -1.82 l
0.47 0 l
0 -1.81 l
2.35 0 l
0 -1.81 l
7.51 0 l
0 -1.82 l
0.70 0 l
0 -1.81 l
3.05 0 l
0 -1.82 l
12.90 0 l
0 -1.90 l
2.35 0 l
0 -1.91 l
47.38 0 l
0 -2.45 l
11.96 0 l
0 -2.89 l
7.74 0 l
o
0.2118 0.5647 0.7529 srgb
np
323.08 397.64 m
0.70 0 l
0 -1.19 l
1.41 0 l
0 -1.18 l
0.23 0 l
0 -1.20 l
0.24 0 l
0 -1.19 l
2.58 0 l
0 -1.20 l
0.23 0 l
0 -1.20 l
2.58 0 l
0 -1.21 l
5.40 0 l
0 -1.21 l
0.47 0 l
0 -1.21 l
1.41 0 l
0 -1.21 l
1.17 0 l
0 -1.22 l
0.70 0 l
0 -1.21 l
0.47 0 l
0 -2.43 l
0.70 0 l
0 -1.21 l
1.65 0 l
0 -1.21 l
1.64 0 l
0 -1.22 l
1.88 0 l
0 -1.22 l
0.70 0 l
0 -2.45 l
1.17 0 l
0 -1.22 l
1.64 0 l
0 -1.23 l
3.52 0 l
0 -1.24 l
2.58 0 l
0 -1.24 l
1.64 0 l
0 -1.25 l
1.18 0 l
0 -1.25 l
5.16 0 l
0 -1.24 l
1.41 0 l
0 -1.25 l
0.23 0 l
0 -1.25 l
0.94 0 l
0 -1.25 l
0.23 0 l
0 -1.24 l
0.24 0 l
0 -1.25 l
1.64 0 l
0 -1.25 l
1.17 0 l
0 -1.25 l
0.94 0 l
0 -1.24 l
1.17 0 l
0 -1.25 l
2.11 0 l
0 -1.25 l
1.65 0 l
0 -2.54 l
3.28 0 l
0 -1.26 l
0.47 0 l
0 -1.27 l
0.94 0 l
0 -1.27 l
3.99 0 l
0 -1.27 l
1.17 0 l
0 -1.26 l
0.70 0 l
0 -1.27 l
1.64 0 l
0 -1.27 l
0.47 0 l
0 -1.27 l
1.41 0 l
0 -1.27 l
0.23 0 l
0 -1.26 l
2.12 0 l
0 -1.28 l
2.11 0 l
0 -1.29 l
0.47 0 l
0 -1.30 l
0.23 0 l
395.09 331.95 lineto
1.17 0 l
0 -1.30 l
3.52 0 l
0 -1.32 l
0.47 0 l
0 -1.32 l
0.70 0 l
0 -1.31 l
0.71 0 l
0 -1.32 l
1.41 0 l
0 -2.63 l
3.05 0 l
0 -1.32 l
0.70 0 l
0 -1.32 l
0.94 0 l
0 -1.31 l
3.98 0 l
0 -1.32 l
0.94 0 l
0 -1.32 l
0.24 0 l
0 -1.32 l
0.23 0 l
0 -1.31 l
0.24 0 l
0 -1.32 l
0.23 0 l
0 -1.32 l
0.71 0 l
0 -1.31 l
1.64 0 l
0 -1.32 l
0.23 0 l
0 -1.32 l
1.17 0 l
0 -1.33 l
2.58 0 l
0 -1.33 l
0.71 0 l
0 -1.34 l
1.17 0 l
0 -1.35 l
1.17 0 l
0 -1.35 l
3.52 0 l
0 -1.35 l
0.24 0 l
0 -1.35 l
0.47 0 l
0 -1.35 l
0.23 0 l
0 -1.35 l
1.17 0 l
0 -1.35 l
0.94 0 l
0 -1.35 l
0.24 0 l
0 -1.35 l
0.70 0 l
0 -1.35 l
0.47 0 l
0 -1.35 l
0.70 0 l
0 -1.35 l
0.94 0 l
0 -1.35 l
1.88 0 l
0 -1.35 l
0.23 0 l
0 -1.35 l
0.24 0 l
0 -1.35 l
0.94 0 l
0 -2.70 l
1.64 0 l
0 -1.35 l
1.40 0 l
0 -1.37 l
0.47 0 l
0 -1.37 l
1.18 0 l
0 -1.38 l
1.40 0 l
0 -2.74 l
1.41 0 l
0 -1.38 l
1.41 0 l
0 -1.37 l
14.07 0 l
0 -1.37 l
4.69 0 l
0 -1.38 l
3.99 0 l
0 -1.37 l
5.40 0 l
0 -1.37 l
3.98 0 l
476.95 260.81 lineto
0.94 0 l
0 -1.37 l
6.57 0 l
0 -1.41 l
4.93 0 l
0 -1.40 l
9.15 0 l
0 -1.40 l
3.51 0 l
0 -1.41 l
0.47 0 l
0 -1.44 l
1.41 0 l
0 -1.44 l
0.70 0 l
0 -1.44 l
0.24 0 l
0 -1.44 l
9.85 0 l
0 -1.44 l
2.35 0 l
0 -1.44 l
0.47 0 l
0 -1.44 l
2.34 0 l
0 -1.49 l
0.47 0 l
0 -1.49 l
3.99 0 l
0 -1.48 l
2.34 0 l
0 -1.49 l
11.97 0 l
0 -1.83 l
27.44 0 l
0 -2.01 l
10.32 0 l
o
0.0196 0.4392 0.6902 srgb
np
323.08 397.64 m
0.47 0 l
0 -1.07 l
2.81 0 l
0 -1.07 l
0.24 0 l
0 -1.08 l
4.45 0 l
0 -1.08 l
1.41 0 l
0 -1.09 l
1.88 0 l
0 -1.09 l
0.47 0 l
0 -1.10 l
4.45 0 l
0 -1.09 l
0.47 0 l
0 -1.09 l
2.11 0 l
0 -1.10 l
1.18 0 l
0 -1.10 l
0.47 0 l
0 -1.10 l
1.87 0 l
0 -1.11 l
1.18 0 l
0 -1.11 l
0.93 0 l
0 -1.11 l
0.71 0 l
0 -1.11 l
1.17 0 l
0 -1.12 l
1.17 0 l
0 -2.25 l
0.94 0 l
0 -1.13 l
1.17 0 l
0 -1.13 l
0.24 0 l
0 -1.12 l
0.23 0 l
0 -1.13 l
3.29 0 l
0 -1.15 l
5.39 0 l
0 -1.16 l
0.24 0 l
0 -1.15 l
1.40 0 l
0 -1.16 l
1.18 0 l
0 -1.16 l
1.40 0 l
0 -1.15 l
3.52 0 l
0 -1.17 l
0.71 0 l
0 -2.33 l
0.23 0 l
0 -1.16 l
0.24 0 l
0 -1.16 l
4.22 0 l
0 -1.18 l
0.23 0 l
0 -1.17 l
1.64 0 l
0 -1.17 l
0.94 0 l
0 -1.18 l
1.64 0 l
0 -1.17 l
0.24 0 l
0 -1.17 l
0.94 0 l
0 -1.18 l
0.23 0 l
0 -1.17 l
2.82 0 l
0 -1.17 l
0.70 0 l
0 -2.35 l
0.47 0 l
0 -1.17 l
3.28 0 l
0 -1.17 l
1.18 0 l
0 -1.18 l
1.40 0 l
0 -1.18 l
0.24 0 l
0 -1.18 l
1.17 0 l
0 -1.18 l
0.70 0 l
0 -1.19 l
1.41 0 l
394.15 337.17 lineto
0.94 0 l
0 -1.18 l
1.17 0 l
0 -1.18 l
3.05 0 l
0 -1.19 l
0.71 0 l
0 -1.18 l
0.23 0 l
0 -1.18 l
0.70 0 l
0 -1.18 l
2.35 0 l
0 -1.19 l
0.70 0 l
0 -2.36 l
0.24 0 l
0 -1.18 l
0.47 0 l
0 -1.19 l
1.17 0 l
0 -1.18 l
0.94 0 l
0 -1.18 l
0.23 0 l
0 -1.18 l
0.94 0 l
0 -1.19 l
0.24 0 l
0 -2.36 l
0.23 0 l
0 -1.18 l
0.24 0 l
0 -1.19 l
0.93 0 l
0 -1.18 l
0.71 0 l
0 -2.36 l
0.94 0 l
0 -1.19 l
1.17 0 l
0 -1.18 l
1.17 0 l
0 -1.18 l
1.17 0 l
0 -1.18 l
0.71 0 l
0 -1.19 l
0.23 0 l
0 -1.18 l
0.71 0 l
0 -1.18 l
0.70 0 l
0 -1.18 l
1.17 0 l
0 -1.19 l
1.64 0 l
0 -2.36 l
1.18 0 l
0 -1.18 l
0.47 0 l
0 -1.19 l
0.23 0 l
0 -1.18 l
0.47 0 l
0 -1.18 l
2.58 0 l
0 -1.18 l
1.88 0 l
0 -1.19 l
0.23 0 l
0 -2.36 l
3.05 0 l
0 -1.18 l
0.47 0 l
0 -1.19 l
0.94 0 l
0 -1.18 l
1.41 0 l
0 -2.36 l
0.47 0 l
0 -1.19 l
4.92 0 l
0 -1.21 l
2.35 0 l
0 -1.22 l
1.40 0 l
0 -1.22 l
0.24 0 l
0 -1.21 l
4.46 0 l
0 -1.22 l
0.93 0 l
0 -1.22 l
1.18 0 l
0 -1.21 l
2.34 0 l
0 -1.22 l
1.88 0 l
453.03 270.64 lineto
0.94 0 l
0 -1.21 l
2.34 0 l
0 -1.22 l
3.05 0 l
0 -1.22 l
2.58 0 l
0 -1.21 l
3.99 0 l
0 -1.22 l
1.17 0 l
0 -1.22 l
0.47 0 l
0 -1.21 l
1.88 0 l
0 -1.24 l
2.58 0 l
0 -1.24 l
0.47 0 l
0 -1.24 l
3.05 0 l
0 -1.24 l
1.64 0 l
0 -2.48 l
3.05 0 l
0 -1.24 l
0.23 0 l
0 -1.24 l
6.57 0 l
0 -1.25 l
0.24 0 l
0 -2.48 l
15.24 0 l
0 -1.24 l
7.27 0 l
0 -1.24 l
3.76 0 l
0 -2.48 l
4.92 0 l
0 -1.27 l
0.24 0 l
0 -1.28 l
1.87 0 l
0 -1.31 l
2.82 0 l
0 -1.31 l
13.37 0 l
0 -1.41 l
1.88 0 l
0 -1.40 l
21.34 0 l
0 -1.80 l
1.17 0 l
0 -1.90 l
5.87 0 l
0 -2.02 l
9.38 0 l
o
0.0118 0.3059 0.4824 srgb
np
323.08 397.64 m
1.41 0 l
0 -1.99 l
6.80 0 l
0 -1.05 l
0.94 0 l
0 -1.05 l
0.23 0 l
0 -1.05 l
5.40 0 l
0 -1.05 l
11.49 0 l
0 -1.06 l
3.52 0 l
0 -1.06 l
4.92 0 l
0 -1.07 l
0.47 0 l
0 -1.07 l
0.94 0 l
0 -1.08 l
0.47 0 l
0 -1.07 l
2.11 0 l
0 -1.07 l
1.17 0 l
0 -1.07 l
0.24 0 l
0 -1.07 l
3.05 0 l
0 -1.07 l
3.05 0 l
0 -1.07 l
3.05 0 l
0 -2.14 l
0.70 0 l
0 -1.07 l
0.47 0 l
0 -1.07 l
2.11 0 l
0 -1.08 l
0.47 0 l
0 -1.08 l
2.35 0 l
0 -1.08 l
0.70 0 l
0 -1.07 l
0.23 0 l
0 -1.08 l
0.71 0 l
0 -2.16 l
0.23 0 l
0 -1.07 l
0.47 0 l
0 -1.08 l
2.11 0 l
0 -1.08 l
3.05 0 l
0 -1.08 l
1.41 0 l
0 -1.07 l
1.64 0 l
0 -1.09 l
1.64 0 l
0 -1.08 l
0.47 0 l
0 -1.09 l
0.47 0 l
0 -1.08 l
1.88 0 l
0 -1.09 l
0.94 0 l
0 -1.08 l
3.75 0 l
0 -1.08 l
0.70 0 l
0 -1.09 l
1.65 0 l
0 -1.08 l
0.23 0 l
0 -1.09 l
1.41 0 l
0 -1.09 l
1.87 0 l
0 -1.09 l
1.88 0 l
0 -2.19 l
0.24 0 l
0 -1.09 l
0.46 0 l
0 -2.18 l
1.18 0 l
0 -1.09 l
0.23 0 l
0 -1.10 l
0.47 0 l
0 -3.30 l
0.24 0 l
0 -1.10 l
0.70 0 l
409.40 336.30 lineto
1.64 0 l
0 -1.10 l
0.47 0 l
0 -1.10 l
0.23 0 l
0 -1.10 l
3.05 0 l
0 -1.10 l
0.71 0 l
0 -1.10 l
0.47 0 l
0 -1.10 l
0.70 0 l
0 -1.10 l
1.17 0 l
0 -2.20 l
2.11 0 l
0 -1.10 l
0.71 0 l
0 -1.10 l
1.41 0 l
0 -1.11 l
1.17 0 l
0 -1.10 l
0.94 0 l
0 -1.10 l
1.87 0 l
0 -1.10 l
1.65 0 l
0 -1.10 l
0.70 0 l
0 -1.10 l
0.23 0 l
0 -1.10 l
0.24 0 l
0 -1.10 l
0.94 0 l
0 -1.10 l
0.23 0 l
0 -1.10 l
0.94 0 l
0 -1.10 l
1.17 0 l
0 -1.10 l
0.47 0 l
0 -1.10 l
0.24 0 l
0 -1.10 l
0.47 0 l
0 -1.10 l
1.87 0 l
0 -1.10 l
0.47 0 l
0 -1.10 l
1.88 0 l
0 -1.10 l
0.47 0 l
0 -1.10 l
0.70 0 l
0 -1.10 l
0.47 0 l
0 -1.11 l
1.64 0 l
0 -1.10 l
1.41 0 l
0 -1.11 l
0.94 0 l
0 -1.11 l
0.70 0 l
0 -1.11 l
4.22 0 l
0 -1.12 l
2.35 0 l
0 -1.11 l
1.41 0 l
0 -1.11 l
0.93 0 l
0 -1.11 l
3.29 0 l
0 -2.23 l
3.28 0 l
0 -1.11 l
0.94 0 l
0 -2.23 l
3.75 0 l
0 -1.11 l
0.24 0 l
0 -1.11 l
4.92 0 l
0 -1.11 l
0.94 0 l
0 -1.12 l
0.94 0 l
0 -1.14 l
0.24 0 l
0 -1.14 l
0.46 0 l
0 -1.14 l
0.94 0 l
472.73 277.61 lineto
0.71 0 l
0 -1.14 l
1.87 0 l
0 -1.14 l
0.47 0 l
0 -1.14 l
2.11 0 l
0 -1.15 l
2.58 0 l
0 -1.14 l
1.41 0 l
0 -1.14 l
1.41 0 l
0 -1.14 l
0.47 0 l
0 -1.15 l
0.23 0 l
0 -1.14 l
2.35 0 l
0 -1.14 l
3.05 0 l
0 -1.14 l
1.17 0 l
0 -1.15 l
3.75 0 l
0 -1.14 l
0.47 0 l
0 -1.14 l
5.16 0 l
0 -1.16 l
2.35 0 l
0 -2.37 l
0.23 0 l
0 -1.19 l
0.24 0 l
0 -1.19 l
0.47 0 l
0 -1.18 l
0.93 0 l
0 -2.37 l
3.05 0 l
0 -1.19 l
8.68 0 l
0 -1.24 l
3.76 0 l
0 -1.30 l
1.64 0 l
0 -1.30 l
3.05 0 l
0 -1.38 l
11.73 0 l
0 -1.50 l
9.38 0 l
0 -1.55 l
17.12 0 l
0 -2.05 l
13.84 0 l
o
/Font1 findfont 12 s
0 0 0 srgb
531.82 391.24 (resection prediction) .5 0 t
0.9961 0.7686 0.3098 srgb
504.57 372.53 (\(0,0.475]) 0 0 t
0.9961 0.6000 0.1608 srgb
504.57 358.13 (\(0.475,0.755]) 0 0 t
0.9255 0.4392 0.0784 srgb
504.57 343.73 (\(0.755,0.883]) 0 0 t
0.8000 0.2980 0.0078 srgb
504.57 329.33 (\(0.883,0.954]) 0 0 t
0.5490 0.1765 0.0157 srgb
504.57 314.93 (\(0.954,1]) 0 0 t
0.6510 0.7412 0.8588 srgb
504.57 300.53 (\(0,0.475]) 0 0 t
0.4549 0.6627 0.8118 srgb
504.57 286.13 (\(0.475,0.755]) 0 0 t
0.2118 0.5647 0.7529 srgb
504.57 271.73 (\(0.755,0.883]) 0 0 t
0.0196 0.4392 0.6902 srgb
504.57 257.33 (\(0.883,0.954]) 0 0 t
0.0118 0.3059 0.4824 srgb
504.57 242.93 (\(0.954,1]) 0 0 t
ep
%%Trailer
%%Pages: 1
%%EOF
