%!PS-Adobe-3.0
%%DocumentNeededResources: font Helvetica
%%+ font Helvetica-Bold
%%+ font Helvetica-Oblique
%%+ font Helvetica-BoldOblique
%%+ font Symbol
%%DocumentMedia: a4 595 841 0 () ()
%%Title: R Graphics Output
%%Creator: R Software
%%Pages: (atend)
%%Orientation: Landscape
%%BoundingBox: 118 241 478 601
%%EndComments
%%BeginProlog
/bp  { gs sRGB 595.00 0 translate 90 rotate gs } def
% begin .ps.prolog
/gs  { gsave } bind def
/gr  { grestore } bind def
/ep  { showpage gr gr } bind def
/m   { moveto } bind def
/l  { rlineto } bind def
/np  { newpath } bind def
/cp  { closepath } bind def
/f   { fill } bind def
/o   { stroke } bind def
/c   { newpath 0 360 arc } bind def
/r   { 4 2 roll moveto 1 copy 3 -1 roll exch 0 exch rlineto 0 rlineto -1 mul 0 exch rlineto closepath } bind def
/p1  { stroke } bind def
/p2  { gsave bg fill grestore newpath } bind def
/p3  { gsave bg fill grestore stroke } bind def
/p6  { gsave bg eofill grestore newpath } bind def
/p7  { gsave bg eofill grestore stroke } bind def
/t   { 5 -2 roll moveto gsave rotate
       1 index stringwidth pop
       mul neg 0 rmoveto show grestore } bind def
/ta  { 4 -2 roll moveto gsave rotate show } bind def
/tb  { 2 -1 roll 0 rmoveto show } bind def
/cl  { grestore gsave newpath 3 index 3 index moveto 1 index
       4 -1 roll lineto  exch 1 index lineto lineto
       closepath clip newpath } bind def
/rgb { setrgbcolor } bind def
/s   { scalefont setfont } bind def
% end   .ps.prolog
/sRGB { [ /CIEBasedABC
          << /DecodeLMN
               [ { dup 0.03928 le
                        {12.92321 div}
                        {0.055 add 1.055 div 2.4 exp }
                     ifelse
                 } bind dup dup
               ]
             /MatrixLMN [0.412457 0.212673 0.019334
                         0.357576 0.715152 0.119192
                         0.180437 0.072175 0.950301]
             /WhitePoint [0.9505 1.0 1.0890]
           >>
         ] setcolorspace } bind def
/srgb { setcolor } bind def
%%IncludeResource: font Helvetica
/Helvetica findfont
dup length dict begin
  {1 index /FID ne {def} {pop pop} ifelse} forall
  /Encoding ISOLatin1Encoding def
  currentdict
  end
/Font1 exch definefont pop
%%IncludeResource: font Helvetica-Bold
/Helvetica-Bold findfont
dup length dict begin
  {1 index /FID ne {def} {pop pop} ifelse} forall
  /Encoding ISOLatin1Encoding def
  currentdict
  end
/Font2 exch definefont pop
%%IncludeResource: font Helvetica-Oblique
/Helvetica-Oblique findfont
dup length dict begin
  {1 index /FID ne {def} {pop pop} ifelse} forall
  /Encoding ISOLatin1Encoding def
  currentdict
  end
/Font3 exch definefont pop
%%IncludeResource: font Helvetica-BoldOblique
/Helvetica-BoldOblique findfont
dup length dict begin
  {1 index /FID ne {def} {pop pop} ifelse} forall
  /Encoding ISOLatin1Encoding def
  currentdict
  end
/Font4 exch definefont pop
%%IncludeResource: font Symbol
/Symbol findfont
dup length dict begin
  {1 index /FID ne {def} {pop pop} ifelse} forall
  currentdict
  end
/Font5 exch definefont pop
%%EndProlog
%%Page: 1 1
bp
299.98 191.08 570.70 418.60 cl
0.7843 0.7843 0.7843 srgb
2.25 setlinewidth
[] 0 setdash
1 setlinecap
1 setlinejoin
10.00 setmiterlimit
np
310.01 199.50 m
0 0 l
0 17.79 l
12.53 0 l
0 9.37 l
12.54 0 l
0 -8.43 l
12.53 0 l
0 2.81 l
12.53 0 l
0 3.74 l
12.54 0 l
0 -3.74 l
12.53 0 l
0 -10.30 l
12.53 0 l
0 7.49 l
12.54 0 l
0 1.87 l
12.53 0 l
0 10.30 l
12.53 0 l
0 -5.62 l
12.54 0 l
0 0.94 l
12.53 0 l
0 18.73 l
12.53 0 l
0 -17.79 l
12.54 0 l
0 24.34 l
12.53 0 l
0 11.24 l
12.53 0 l
0 22.47 l
12.54 0 l
0 14.04 l
12.53 0 l
0 39.33 l
12.53 0 l
0 73.03 l
12.54 0 l
0 -211.61 l
o
240.94 117.64 600.94 477.64 cl
299.98 191.08 570.70 418.60 cl
0.7451 0.7451 0.7451 srgb
0.75 setlinewidth
[ 0.00 3.00] 0 setdash
1 setlinecap
1 setlinejoin
10.00 setmiterlimit
np
310.01 191.08 m
0 227.52 l
o
np
428.96 191.08 m
0 227.52 l
o
np
499.35 191.08 m
0 227.52 l
o
np
531.33 191.08 m
0 227.52 l
o
np
549.10 191.08 m
0 227.52 l
o
np
560.68 191.08 m
0 227.52 l
o
0.0157 0.3529 0.5529 srgb
2.25 setlinewidth
[] 0 setdash
np
310.01 199.50 m
0 0 l
0 0.94 l
12.53 0 l
0 1.87 l
12.54 0 l
0 -0.93 l
12.53 0 l
0 2.81 l
12.53 0 l
0 1.87 l
12.54 0 l
0 -0.94 l
12.53 0 l
0 -0.93 l
12.53 0 l
0 -0.94 l
12.54 0 l
0 0 l
12.53 0 l
0 11.24 l
12.53 0 l
0 1.87 l
12.54 0 l
0 -2.81 l
12.53 0 l
0 11.23 l
12.53 0 l
0 -5.61 l
12.54 0 l
0 15.91 l
12.53 0 l
0 11.24 l
12.53 0 l
0 26.22 l
12.54 0 l
0 15.91 l
12.53 0 l
0 42.14 l
12.53 0 l
0 74.90 l
12.54 0 l
0 -205.99 l
o
0.9961 0.6000 0.1608 srgb
np
310.01 199.50 m
0 0 l
0 16.86 l
12.53 0 l
0 7.49 l
12.54 0 l
0 -7.49 l
12.53 0 l
0 0 l
12.53 0 l
0 1.87 l
12.54 0 l
0 -2.81 l
12.53 0 l
0 -9.36 l
12.53 0 l
0 8.43 l
12.54 0 l
0 1.87 l
12.53 0 l
0 -0.94 l
12.53 0 l
0 -7.49 l
12.54 0 l
0 3.75 l
12.53 0 l
0 7.49 l
12.53 0 l
0 -12.18 l
12.54 0 l
0 8.43 l
12.53 0 l
0 0 l
12.53 0 l
0 -3.74 l
12.54 0 l
0 -1.88 l
12.53 0 l
0 -2.81 l
12.53 0 l
0 -1.87 l
12.54 0 l
0 -5.62 l
o
240.94 117.64 600.94 477.64 cl
0 0 0 srgb
0.75 setlinewidth
[] 0 setdash
1 setlinecap
1 setlinejoin
10.00 setmiterlimit
np
310.01 191.08 m
250.67 0 l
o
np
310.01 191.08 m
0 -7.20 l
o
np
335.08 191.08 m
0 -7.20 l
o
np
360.14 191.08 m
0 -7.20 l
o
np
385.21 191.08 m
0 -7.20 l
o
np
410.28 191.08 m
0 -7.20 l
o
np
435.34 191.08 m
0 -7.20 l
o
np
460.41 191.08 m
0 -7.20 l
o
np
485.48 191.08 m
0 -7.20 l
o
np
510.54 191.08 m
0 -7.20 l
o
np
535.61 191.08 m
0 -7.20 l
o
np
560.68 191.08 m
0 -7.20 l
o
/Font1 findfont 12 s
310.01 165.16 (0.0) .5 0 t
360.14 165.16 (0.2) .5 0 t
410.28 165.16 (0.4) .5 0 t
460.41 165.16 (0.6) .5 0 t
510.54 165.16 (0.8) .5 0 t
560.68 165.16 (1.0) .5 0 t
np
299.98 199.50 m
0 210.67 l
o
np
299.98 199.50 m
-7.20 0 l
o
np
299.98 222.91 m
-7.20 0 l
o
np
299.98 246.32 m
-7.20 0 l
o
np
299.98 269.73 m
-7.20 0 l
o
np
299.98 293.13 m
-7.20 0 l
o
np
299.98 316.54 m
-7.20 0 l
o
np
299.98 339.95 m
-7.20 0 l
o
np
299.98 363.36 m
-7.20 0 l
o
np
299.98 386.76 m
-7.20 0 l
o
np
299.98 410.17 m
-7.20 0 l
o
285.58 195.20 (0) 1 0 t
285.58 218.60 (25) 1 0 t
285.58 242.01 (50) 1 0 t
285.58 265.42 (75) 1 0 t
285.58 288.83 (100) 1 0 t
285.58 312.23 (125) 1 0 t
285.58 335.64 (150) 1 0 t
285.58 359.05 (175) 1 0 t
285.58 382.46 (200) 1 0 t
285.58 405.86 (225) 1 0 t
299.98 191.08 570.70 418.60 cl
/Font1 findfont 12 s
0.7843 0.7843 0.7843 srgb
321.58 399.89 (all) 0 0 t
0.0157 0.3529 0.5529 srgb
321.58 385.49 (resections) 0 0 t
0.9961 0.6000 0.1608 srgb
321.58 371.09 (biopsies) 0 0 t
ep
%%Trailer
%%Pages: 1
%%EOF
